{
    "key": "group_57834ce71fa01",
    "title": "Story Content Fields",
    "fields": [
        {
            "key": "field_57834d040c805",
            "label": "Story Popup Content",
            "name": "story_popup_content",
            "type": "flexible_content",
            "instructions": "",
            "required": 0,
            "conditional_logic": 0,
            "wrapper": {
                "width": "",
                "class": "",
                "id": ""
            },
            "button_label": "Add Content",
            "min": "",
            "max": "",
            "layouts": [
                {
                    "key": "57834d5aad9b0",
                    "name": "heading_layout",
                    "label": "Heading",
                    "display": "block",
                    "sub_fields": [
                        {
                            "key": "field_57834d6e0c806",
                            "label": "Heading",
                            "name": "heading",
                            "type": "text",
                            "instructions": "",
                            "required": 0,
                            "conditional_logic": 0,
                            "wrapper": {
                                "width": "",
                                "class": "",
                                "id": ""
                            },
                            "default_value": "",
                            "placeholder": "",
                            "prepend": "",
                            "append": "",
                            "maxlength": "",
                            "readonly": 0,
                            "disabled": 0
                        }
                    ],
                    "min": "",
                    "max": ""
                },
                {
                    "key": "57834e4a46a35",
                    "name": "paragraph_layout",
                    "label": "Content",
                    "display": "block",
                    "sub_fields": [
                        {
                            "key": "field_57834d800c807",
                            "label": "Content",
                            "name": "paragraph",
                            "type": "wysiwyg",
                            "instructions": "",
                            "required": 0,
                            "conditional_logic": 0,
                            "wrapper": {
                                "width": "",
                                "class": "",
                                "id": ""
                            },
                            "default_value": "",
                            "tabs": "all",
                            "toolbar": "full",
                            "media_upload": 1
                        }
                    ],
                    "min": "",
                    "max": ""
                },
                {
                    "key": "57834e5c46a36",
                    "name": "blockquote_layout",
                    "label": "Blockquote",
                    "display": "block",
                    "sub_fields": [
                        {
                            "key": "field_57834da40c808",
                            "label": "Blockquote",
                            "name": "blockquote",
                            "type": "repeater",
                            "instructions": "",
                            "required": 0,
                            "conditional_logic": 0,
                            "wrapper": {
                                "width": "",
                                "class": "",
                                "id": ""
                            },
                            "collapsed": "",
                            "min": 1,
                            "max": 1,
                            "layout": "row",
                            "button_label": "Disabled",
                            "sub_fields": [
                                {
                                    "key": "field_57834dd10c809",
                                    "label": "Quote",
                                    "name": "quote",
                                    "type": "textarea",
                                    "instructions": "",
                                    "required": 0,
                                    "conditional_logic": 0,
                                    "wrapper": {
                                        "width": "",
                                        "class": "",
                                        "id": ""
                                    },
                                    "default_value": "",
                                    "placeholder": "",
                                    "maxlength": "",
                                    "rows": 4,
                                    "new_lines": "",
                                    "readonly": 0,
                                    "disabled": 0
                                },
                                {
                                    "key": "field_57834de70c80a",
                                    "label": "Cite",
                                    "name": "cite",
                                    "type": "text",
                                    "instructions": "",
                                    "required": 0,
                                    "conditional_logic": 0,
                                    "wrapper": {
                                        "width": "",
                                        "class": "",
                                        "id": ""
                                    },
                                    "default_value": "",
                                    "placeholder": "",
                                    "prepend": "",
                                    "append": "",
                                    "maxlength": "",
                                    "readonly": 0,
                                    "disabled": 0
                                }
                            ]
                        }
                    ],
                    "min": "",
                    "max": ""
                }
            ]
        }
    ],
    "location": [
        [
            {
                "param": "post_type",
                "operator": "==",
                "value": "story"
            }
        ]
    ],
    "menu_order": 0,
    "position": "acf_after_title",
    "style": "default",
    "label_placement": "top",
    "instruction_placement": "label",
    "hide_on_screen": "",
    "active": 1,
    "description": "",
    "modified": 1468225727
}