{
    "key": "group_577d27ecf3e58",
    "title": "Press fields",
    "fields": [
        {
            "key": "field_577d27f3aa468",
            "label": "Sticky",
            "name": "sticky",
            "type": "true_false",
            "instructions": "If checked, this press article will stay at the top of the list.",
            "required": 0,
            "conditional_logic": 0,
            "wrapper": {
                "width": "",
                "class": "",
                "id": ""
            },
            "message": "",
            "default_value": 0
        }
    ],
    "location": [
        [
            {
                "param": "post_type",
                "operator": "==",
                "value": "press"
            }
        ]
    ],
    "menu_order": 0,
    "position": "side",
    "style": "default",
    "label_placement": "top",
    "instruction_placement": "label",
    "hide_on_screen": "",
    "active": 1,
    "description": "",
    "modified": 1467962773
}